{
  "sound_intensity": 79,
  "wave": 7,
  "coarse": 0,
  "detune": 0,
  "trigger_noise_with_osc": false,
  "env_attack": 0,
  "env_decay": 13,
  "env_sustain": 26,
  "env_release": 4,
  "filter_osc_mode": 1,
  "filter_osc_freq_from": 8000,
  "filter_osc_freq_to": 0,
  "filter_osc_speed": 154,
  "filter_osc_resonance": 0,
  "noise_vol": 56,
  "noise_decay": 0,
  "filter_noise_freq_from": 4900,
  "filter_noise_freq_to": 0,
  "filter_noise_speed": 72,
  "pwm_from": 555,
  "pwm_to": 85,
  "pwm_speed": 4,
  "rev_send": 0,
  "chorus_send": 0,
  "delay_send": 0,
  "midi_channel": 3,
  "pan": 22
}