{
  "seq_tempo_ms": 154639,
  "seq_bpm": 97,
  "arp_speed": 2,
  "arp_length": 4,
  "arp_volume_fade": 0.0555,
  "arp_style": 0,
  "seq_chord_vel": 53,
  "seq_chord_dexed_inst": 0,
  "seq_transpose": 0,
  "chord_key_ammount": 3,
  "seq_oct_shift": -1,
  "seq_element_shift": 6,
  "COLOR_SYSTEXT": 65535,
  "COLOR_SYSTEXT_ACCENT": 5530,
  "COLOR_BACKGROUND": 0,
  "COLOR_INSTR": 31677,
  "COLOR_CHORDS": 58106,
  "COLOR_ARP": 64640,
  "COLOR_DRUMS": 65103,
  "COLOR_PITCHSMP": 5530,
  "track_type": [
    0,
    1,
    1,
    3,
    2,
    0,
    0,
    0
  ],
  "content_type": [
    0,
    1,
    1,
    1,
    1,
    1,
    1,
    1,
    1,
    1,
    2,
    2,
    1,
    1,
    1,
    1,
    1,
    1,
    0,
    1,
    2,
    0,
    0,
    0
  ],
  "seq_inst_dexed": [
    0,
    3,
    1,
    4,
    0,
    0,
    0,
    0
  ],
  "seq_name": [
    83,
    104,
    97,
    100,
    101,
    115,
    76,
    103,
    104,
    116,
    0,
    0,
    0,
    0,
    0,
    0,
    0,
    0,
    0,
    0,
    0,
    0,
    0
  ]
}