{
  "seq_velocity": [
    120,
    104,
    99,
    74,
    107,
    93,
    120,
    102,
    120,
    68,
    113,
    76,
    120,
    82,
    120,
    94,
    127,
    0,
    110,
    0,
    113,
    115,
    0,
    102,
    0,
    96,
    105,
    110,
    105,
    100,
    99,
    107,
    123,
    0,
    101,
    0,
    115,
    110,
    107,
    0,
    0,
    97,
    90,
    107,
    115,
    97,
    96,
    110,
    120,
    0,
    120,
    0,
    125,
    123,
    126,
    115,
    0,
    105,
    124,
    125,
    0,
    115,
    101,
    113,
    105,
    0,
    113,
    0,
    115,
    0,
    113,
    113,
    101,
    115,
    0,
    125,
    0,
    125,
    125,
    125,
    123,
    0,
    0,
    0,
    0,
    0,
    0,
    0,
    0,
    0,
    0,
    0,
    127,
    0,
    0,
    0,
    125,
    0,
    0,
    0,
    0,
    0,
    0,
    0,
    127,
    0,
    0,
    0,
    127,
    0,
    0,
    0,
    127,
    105,
    95,
    90,
    85,
    79,
    74,
    71,
    60,
    55,
    50,
    45,
    40,
    35,
    29,
    20,
    120,
    0,
    0,
    0,
    0,
    0,
    108,
    127,
    0,
    0,
    0,
    115,
    112,
    115,
    124,
    105,
    0,
    0,
    0,
    0,
    0,
    0,
    0,
    0,
    0,
    0,
    0,
    0,
    120,
    120,
    87,
    97,
    0,
    0,
    201,
    0,
    201,
    201,
    0,
    0,
    0,
    0,
    201,
    0,
    201,
    201,
    0,
    0,
    0,
    0,
    200,
    0,
    200,
    200,
    0,
    0,
    0,
    0,
    200,
    0,
    200,
    200,
    0,
    0,
    120,
    0,
    0,
    0,
    0,
    0,
    0,
    0,
    0,
    0,
    0,
    0,
    0,
    0,
    0,
    0,
    120,
    0,
    0,
    0,
    0,
    0,
    0,
    0,
    120,
    0,
    0,
    0,
    0,
    0,
    120,
    0,
    127,
    120,
    120,
    0,
    0,
    0,
    0,
    0,
    0,
    0,
    0,
    0,
    120,
    0,
    120,
    0,
    127,
    0,
    120,
    0,
    0,
    0,
    0,
    0,
    0,
    0,
    0,
    0,
    124,
    0,
    123,
    0,
    120,
    0,
    120,
    0,
    120,
    0,
    120,
    0,
    120,
    0,
    97,
    90,
    90,
    110,
    99,
    120,
    120,
    0,
    120,
    0,
    120,
    0,
    120,
    0,
    120,
    0,
    124,
    124,
    123,
    125,
    127,
    120,
    120,
    0,
    0,
    0,
    120,
    0,
    0,
    0,
    120,
    0,
    0,
    0,
    120,
    0,
    0,
    0,
    49,
    0,
    0,
    0,
    0,
    0,
    0,
    0,
    0,
    0,
    0,
    0,
    0,
    0,
    0,
    0,
    201,
    0,
    0,
    0,
    0,
    0,
    0,
    0,
    0,
    0,
    0,
    0,
    0,
    0,
    0,
    0,
    0,
    0,
    0,
    0,
    0,
    0,
    0,
    0,
    0,
    0,
    0,
    0,
    0,
    0,
    0,
    0,
    0,
    0,
    0,
    0,
    0,
    0,
    0,
    0,
    0,
    0,
    0,
    0,
    0,
    0,
    0,
    0,
    0,
    0,
    0,
    0,
    0,
    0,
    0,
    0,
    0,
    0,
    0,
    0,
    0,
    0,
    0,
    0
  ]
}