{
  "seq_velocity": [
    120,
    120,
    120,
    120,
    120,
    0,
    0,
    0,
    120,
    0,
    120,
    120,
    120,
    0,
    0,
    0,
    105,
    80,
    105,
    70,
    106,
    98,
    106,
    70,
    126,
    97,
    106,
    70,
    106,
    99,
    90,
    65,
    120,
    120,
    120,
    120,
    120,
    86,
    106,
    99,
    120,
    0,
    120,
    80,
    120,
    79,
    95,
    109,
    0,
    0,
    0,
    0,
    0,
    0,
    0,
    0,
    0,
    0,
    0,
    0,
    0,
    0,
    0,
    0,
    0,
    0,
    1,
    10,
    30,
    50,
    70,
    90,
    100,
    127,
    100,
    60,
    40,
    30,
    0,
    200,
    200,
    200,
    200,
    200,
    200,
    200,
    201,
    200,
    200,
    200,
    200,
    200,
    200,
    200,
    200,
    200,
    201,
    200,
    200,
    200,
    200,
    200,
    200,
    200,
    200,
    200,
    200,
    200,
    200,
    200,
    200,
    200,
    126,
    200,
    200,
    125,
    120,
    0,
    126,
    120,
    0,
    0,
    125,
    120,
    0,
    0,
    0,
    0,
    124,
    120,
    0,
    115,
    0,
    0,
    126,
    120,
    0,
    120,
    127,
    120,
    0,
    0,
    0,
    0,
    123,
    120,
    0,
    110,
    120,
    0,
    90,
    120,
    0,
    0,
    0,
    0,
    0,
    0,
    0,
    0,
    0,
    0,
    0,
    0,
    0,
    0,
    0,
    0,
    0,
    0,
    0,
    0,
    0,
    0,
    0,
    0,
    0,
    0,
    0,
    0,
    0,
    0,
    0,
    0,
    0,
    0,
    0,
    0,
    0,
    0,
    0,
    0,
    0,
    0,
    0,
    0,
    0,
    0,
    0,
    0,
    0,
    0,
    0,
    0,
    0,
    0,
    0,
    0,
    0,
    0,
    0,
    0,
    0,
    0,
    0,
    0,
    0,
    0,
    0,
    0,
    0,
    0,
    0,
    0,
    0,
    0,
    0,
    0,
    0,
    0,
    0,
    0,
    0,
    0,
    0,
    0,
    0,
    0,
    0,
    0,
    0,
    0,
    0,
    0,
    0,
    0,
    0,
    0,
    0,
    0,
    0,
    0,
    0,
    0,
    0,
    0,
    0,
    0,
    0,
    0,
    0,
    0,
    0,
    0,
    0,
    0,
    0,
    0,
    0,
    0,
    0,
    0,
    0,
    0,
    0,
    0,
    0,
    0,
    0,
    0,
    0,
    0,
    0,
    0,
    0,
    0,
    0,
    0,
    0,
    0,
    0,
    0,
    0,
    0,
    0,
    0,
    0,
    0,
    0,
    0,
    0,
    0,
    0,
    0,
    0,
    0,
    0,
    0,
    0,
    0,
    0,
    0,
    0,
    0,
    0,
    0,
    0,
    0,
    0,
    0,
    0,
    0,
    0,
    0,
    0,
    0,
    0,
    0,
    0,
    0,
    0,
    0,
    0,
    0,
    0,
    0,
    0,
    0,
    0,
    0,
    0,
    0,
    0,
    0,
    0,
    0,
    0,
    0,
    0,
    0,
    0,
    0,
    0,
    0,
    0,
    0,
    0,
    0,
    0,
    0,
    0,
    0,
    0,
    0,
    0,
    0,
    0,
    0,
    0,
    0,
    0,
    0,
    0,
    0,
    0,
    0,
    0,
    0,
    0,
    0,
    0,
    0,
    0,
    0
  ]
}