{
  "bank": 30,
  "voice": 21,
  "lowest_note": 21,
  "highest_note": 108,
  "transpose": 24,
  "tune": 100,
  "sound_intensity": 71,
  "pan": 20,
  "polyphony": 16,
  "velocity_level": 100,
  "monopoly": 0,
  "note_refresh": 0,
  "pb_range": 1,
  "pb_step": 0,
  "mw_range": 50,
  "mw_assign": 0,
  "mw_mode": 0,
  "fc_range": 50,
  "fc_assign": 0,
  "fc_mode": 0,
  "bc_range": 50,
  "bc_assign": 0,
  "bc_mode": 0,
  "at_range": 50,
  "at_assign": 0,
  "at_mode": 0,
  "portamento_mode": 0,
  "portamento_glissando": 0,
  "portamento_time": 0,
  "op_enabled": 63,
  "midi_channel": 6
}